<?xml version="1.0" encoding="utf-8"?>
<!DOCTYPE eagle SYSTEM "eagle.dtd">
<eagle version="9.6.2">
<drawing>
<settings>
<setting alwaysvectorfont="no"/>
<setting verticaltext="up"/>
</settings>
<grid distance="1" unitdist="mm" unit="mm" style="lines" multiple="1" display="yes" altdistance="0.1" altunitdist="mm" altunit="mm"/>
<layers>
<layer number="1" name="Top" color="4" fill="1" visible="no" active="no"/>
<layer number="16" name="Bottom" color="1" fill="1" visible="no" active="no"/>
<layer number="17" name="Pads" color="2" fill="1" visible="no" active="no"/>
<layer number="18" name="Vias" color="2" fill="1" visible="no" active="no"/>
<layer number="19" name="Unrouted" color="6" fill="1" visible="no" active="no"/>
<layer number="20" name="Dimension" color="24" fill="1" visible="no" active="no"/>
<layer number="21" name="tPlace" color="7" fill="1" visible="no" active="no"/>
<layer number="22" name="bPlace" color="7" fill="1" visible="no" active="no"/>
<layer number="23" name="tOrigins" color="15" fill="1" visible="no" active="no"/>
<layer number="24" name="bOrigins" color="15" fill="1" visible="no" active="no"/>
<layer number="25" name="tNames" color="7" fill="1" visible="no" active="no"/>
<layer number="26" name="bNames" color="7" fill="1" visible="no" active="no"/>
<layer number="27" name="tValues" color="7" fill="1" visible="no" active="no"/>
<layer number="28" name="bValues" color="7" fill="1" visible="no" active="no"/>
<layer number="29" name="tStop" color="7" fill="3" visible="no" active="no"/>
<layer number="30" name="bStop" color="7" fill="6" visible="no" active="no"/>
<layer number="31" name="tCream" color="7" fill="4" visible="no" active="no"/>
<layer number="32" name="bCream" color="7" fill="5" visible="no" active="no"/>
<layer number="33" name="tFinish" color="6" fill="3" visible="no" active="no"/>
<layer number="34" name="bFinish" color="6" fill="6" visible="no" active="no"/>
<layer number="35" name="tGlue" color="7" fill="4" visible="no" active="no"/>
<layer number="36" name="bGlue" color="7" fill="5" visible="no" active="no"/>
<layer number="37" name="tTest" color="7" fill="1" visible="no" active="no"/>
<layer number="38" name="bTest" color="7" fill="1" visible="no" active="no"/>
<layer number="39" name="tKeepout" color="4" fill="11" visible="no" active="no"/>
<layer number="40" name="bKeepout" color="1" fill="11" visible="no" active="no"/>
<layer number="41" name="tRestrict" color="4" fill="10" visible="no" active="no"/>
<layer number="42" name="bRestrict" color="1" fill="10" visible="no" active="no"/>
<layer number="43" name="vRestrict" color="2" fill="10" visible="no" active="no"/>
<layer number="44" name="Drills" color="7" fill="1" visible="no" active="no"/>
<layer number="45" name="Holes" color="7" fill="1" visible="no" active="no"/>
<layer number="46" name="Milling" color="3" fill="1" visible="no" active="no"/>
<layer number="47" name="Measures" color="7" fill="1" visible="no" active="no"/>
<layer number="48" name="Document" color="7" fill="1" visible="no" active="no"/>
<layer number="49" name="Reference" color="7" fill="1" visible="no" active="no"/>
<layer number="51" name="tDocu" color="7" fill="1" visible="no" active="no"/>
<layer number="52" name="bDocu" color="7" fill="1" visible="no" active="no"/>
<layer number="88" name="SimResults" color="9" fill="1" visible="yes" active="yes"/>
<layer number="89" name="SimProbes" color="9" fill="1" visible="yes" active="yes"/>
<layer number="90" name="Modules" color="5" fill="1" visible="yes" active="yes"/>
<layer number="91" name="Nets" color="2" fill="1" visible="yes" active="yes"/>
<layer number="92" name="Busses" color="1" fill="1" visible="yes" active="yes"/>
<layer number="93" name="Pins" color="2" fill="1" visible="no" active="yes"/>
<layer number="94" name="Symbols" color="4" fill="1" visible="yes" active="yes"/>
<layer number="95" name="Names" color="7" fill="1" visible="yes" active="yes"/>
<layer number="96" name="Values" color="7" fill="1" visible="yes" active="yes"/>
<layer number="97" name="Info" color="7" fill="1" visible="yes" active="yes"/>
<layer number="98" name="Guide" color="6" fill="1" visible="yes" active="yes"/>
</layers>
<schematic xreflabel="%F%N/%S.%C%R" xrefpart="/%S.%C%R">
<libraries>
<library name="LM2576T">
<packages>
<package name="T05A_TEX">
<pad name="1" x="0" y="0" drill="1.0922" diameter="1.6002"/>
<pad name="2" x="1.7018" y="0" drill="1.0922" diameter="1.6002"/>
<pad name="3" x="3.4036" y="0" drill="1.0922" diameter="1.6002"/>
<pad name="4" x="5.1054" y="0" drill="1.0922" diameter="1.6002"/>
<pad name="5" x="6.8072" y="0" drill="1.0922" diameter="1.6002"/>
<wire x1="-1.9812" y1="-1.9812" x2="8.7884" y2="-1.9812" width="0.1524" layer="21"/>
<wire x1="8.7884" y1="-1.9812" x2="8.7884" y2="2.9972" width="0.1524" layer="21"/>
<wire x1="8.7884" y1="2.9972" x2="-1.9812" y2="2.9972" width="0.1524" layer="21"/>
<wire x1="-1.9812" y1="2.9972" x2="-1.9812" y2="-1.9812" width="0.1524" layer="21"/>
<wire x1="-3.556" y1="0" x2="-3.9624" y2="0" width="0.1524" layer="21" curve="-180"/>
<wire x1="-3.9624" y1="0" x2="-3.556" y2="0" width="0.1524" layer="21" curve="-180"/>
<wire x1="-0.254" y1="0" x2="0.254" y2="0" width="0.1524" layer="51"/>
<wire x1="0" y1="-0.254" x2="0" y2="0.254" width="0.1524" layer="51"/>
<wire x1="-1.8796" y1="-1.8288" x2="8.6868" y2="-1.8288" width="0.1524" layer="51"/>
<wire x1="8.6868" y1="-1.8288" x2="8.6868" y2="2.8448" width="0.1524" layer="51"/>
<wire x1="8.6868" y1="2.8448" x2="-1.8796" y2="2.8448" width="0.1524" layer="51"/>
<wire x1="-1.8796" y1="2.8448" x2="-1.8796" y2="-1.8288" width="0.1524" layer="51"/>
<wire x1="-1.1684" y1="0" x2="-1.5748" y2="0" width="0" layer="51" curve="-180"/>
<wire x1="-1.5748" y1="0" x2="-1.1684" y2="0" width="0" layer="51" curve="-180"/>
<text x="0.127" y="-0.127" size="1.27" layer="25" ratio="6" rot="SR0">&gt;Name</text>
<text x="1.6764" y="-0.127" size="1.27" layer="27" ratio="6" rot="SR0">&gt;Value</text>
</package>
</packages>
<symbols>
<symbol name="LM2576T-5_0_1">
<pin name="VIN" x="2.54" y="0" length="middle" direction="pwr"/>
<pin name="OUT" x="2.54" y="-2.54" length="middle" direction="pwr"/>
<pin name="GND" x="63.5" y="-5.08" length="middle" direction="pwr" rot="R180"/>
<pin name="FB" x="63.5" y="-2.54" length="middle" direction="in" rot="R180"/>
<pin name="~ON~/OFF" x="63.5" y="0" length="middle" direction="in" rot="R180"/>
<wire x1="7.62" y1="5.08" x2="7.62" y2="-10.16" width="0.1524" layer="94"/>
<wire x1="7.62" y1="-10.16" x2="58.42" y2="-10.16" width="0.1524" layer="94"/>
<wire x1="58.42" y1="-10.16" x2="58.42" y2="5.08" width="0.1524" layer="94"/>
<wire x1="58.42" y1="5.08" x2="7.62" y2="5.08" width="0.1524" layer="94"/>
<text x="28.2956" y="9.1186" size="2.0828" layer="95" ratio="6" rot="SR0">&gt;Name</text>
<text x="27.6606" y="6.5786" size="2.0828" layer="96" ratio="6" rot="SR0">&gt;Value</text>
</symbol>
</symbols>
<devicesets>
<deviceset name="LM2576T-ADJ/LF03" prefix="U">
<gates>
<gate name="A" symbol="LM2576T-5_0_1" x="0" y="0"/>
</gates>
<devices>
<device name="" package="T05A_TEX">
<connects>
<connect gate="A" pin="FB" pad="4"/>
<connect gate="A" pin="GND" pad="3"/>
<connect gate="A" pin="OUT" pad="2"/>
<connect gate="A" pin="VIN" pad="1"/>
<connect gate="A" pin="~ON~/OFF" pad="5"/>
</connects>
<technologies>
<technology name="">
<attribute name="COPYRIGHT" value="Copyright (C) 2021 Ultra Librarian. All rights reserved." constant="no"/>
<attribute name="DIGI-KEY_PART_NUMBER_1" value="296-35127-5-ND" constant="no"/>
<attribute name="DIGI-KEY_PART_NUMBER_2" value="2156-LM2576T-ADJ/LF03-ND" constant="no"/>
<attribute name="MANUFACTURER_PART_NUMBER" value="LM2576T-ADJ/LF03" constant="no"/>
<attribute name="MFR_NAME" value="Texas Instruments" constant="no"/>
</technology>
</technologies>
</device>
</devices>
</deviceset>
</devicesets>
</library>
</libraries>
<attributes>
</attributes>
<variantdefs>
</variantdefs>
<classes>
<class number="0" name="default" width="0" drill="0">
</class>
</classes>
<parts>
<part name="U1" library="LM2576T" deviceset="LM2576T-ADJ/LF03" device=""/>
</parts>
<sheets>
<sheet>
<plain>
</plain>
<instances>
<instance part="U1" gate="A" x="-32" y="16" smashed="yes">
<attribute name="NAME" x="-3.7044" y="25.1186" size="2.0828" layer="95" ratio="6" rot="SR0"/>
<attribute name="VALUE" x="-4.3394" y="22.5786" size="2.0828" layer="96" ratio="6" rot="SR0"/>
</instance>
</instances>
<busses>
</busses>
<nets>
</nets>
</sheet>
</sheets>
</schematic>
</drawing>
</eagle>
