G04 EAGLE Gerber RS-274X export*
G75*
%MOMM*%
%FSLAX34Y34*%
%LPD*%
%INSoldermask Bottom*%
%IPPOS*%
%AMOC8*
5,1,8,0,0,1.08239X$1,22.5*%
G01*
%ADD10R,1.311200X1.311200*%
%ADD11P,1.951982X8X292.500000*%
%ADD12C,1.841500*%


D10*
X193300Y476700D03*
X320300Y476700D03*
D11*
X280600Y630800D03*
X280600Y605400D03*
X436800Y330800D03*
X436800Y305400D03*
D10*
X729500Y388600D03*
X729500Y288600D03*
X859500Y550200D03*
X859500Y450200D03*
X433300Y504800D03*
X560300Y504800D03*
X747900Y698600D03*
X787900Y698600D03*
D12*
X422500Y755100D03*
X439518Y755100D03*
X456536Y755100D03*
X473554Y755100D03*
X490572Y755100D03*
M02*
