Partlist exported from C:/Users/hiaad/OneDrive/Documents/gitlabelectrical/aasivaku-functionalbuckconverter/aasivaku-buckConverterPart2.sch at 11/13/2021 12:39 AM

Qty Value            Device           Package         Parts  Description COPYRIGHT                                                DIGI-KEY_PART_NUMBER_1 DIGI-KEY_PART_NUMBER_2   MANUFACTURER_PART_NUMBER MFR_NAME          POPULARITY
1   100μF            C2,5-3           C2.5-3          C1     CAPACITOR                                                                                                                                                       38        
1   1kOhms           CUSTOMRESISTOR2  CUSTOMRESISTOR2 R1                                                                                                                                                                               
1   410.49μF         C2,5-3           C2.5-3          C2     CAPACITOR                                                                                                                                                       38        
1   43.2μF           CUSTOMINDUCTOR1  CUSTOMINDUCTOR1 U$3                                                                                                                                                                              
1   6.32kOhms        CUSTOMRESISTOR1  CUSTOMRESISTOR1 R2                                                                                                                                                                               
1   LM2576T-ADJ/LF03 LM2576T-ADJ/LF03 T05A_TEX        U1                 Copyright (C) 2021 Ultra Librarian. All rights reserved. 296-35127-5-ND         2156-LM2576T-ADJ/LF03-ND LM2576T-ADJ/LF03         Texas Instruments           
1   NF123G-302       NF123G-302       NF123G-302      U$6                                                                                                                                                                              
1   POWERCONNECTOR   POWERCONNECTOR   POWERCONNECTOR  U$5                                                                                                                                                                              
1   SCHOTTKY1N5280   SCHOTTKY1N5280   SCHOTTKY1N5280  1N5280                                                                                                                                                                           
